Sprawozdanie 1
…
plot_data <- data_years %>% group_by(year) %>% summarize(mean_length=mean(length), from = mean(length) - sd(length), to = mean(length) + sd(length))
plot_data

## # A tibble: 60 x 4
##     year mean_length  from    to
##    <dbl>       <dbl> <dbl> <dbl>
##  1     1        23.8  22.0  25.5
##  2     2        25.4  23.9  26.9
##  3     3        25.2  23.7  26.7
##  4     4        24.9  23.3  26.5
##  5     5        25.2  23.8  26.6
##  6     6        25.1  23.8  26.5
##  7     7        25.1  23.7  26.5
##  8     8        25.4  24.0  26.7
##  9     9        25.5  24.1  26.8
## 10    10        26.2  24.9  27.4
## # ... with 50 more rows
…
